<?xml version="1.0" encoding="UTF-8" standalone="no"?>
<!-- Generator: Adobe Illustrator 16.0.0, SVG Export Plug-In . SVG Version: 6.00 Build 0)  -->

<svg
   xmlns:dc="http://purl.org/dc/elements/1.1/"
   xmlns:cc="http://creativecommons.org/ns#"
   xmlns:rdf="http://www.w3.org/1999/02/22-rdf-syntax-ns#"
   xmlns:svg="http://www.w3.org/2000/svg"
   xmlns="http://www.w3.org/2000/svg"
   xmlns:sodipodi="http://sodipodi.sourceforge.net/DTD/sodipodi-0.dtd"
   xmlns:inkscape="http://www.inkscape.org/namespaces/inkscape"
   version="1.1"
   id="Vrstva_1"
   x="0px"
   y="0px"
   width="304.658px"
   height="270.626px"
   viewBox="0 0 304.658 270.626"
   enable-background="new 0 0 304.658 270.626"
   xml:space="preserve"
   inkscape:version="0.91 r13725"
   sodipodi:docname="logo-openalt-conference.svg"><metadata
     id="metadata54"><rdf:RDF><cc:Work
         rdf:about=""><dc:format>image/svg+xml</dc:format><dc:type
           rdf:resource="http://purl.org/dc/dcmitype/StillImage" /></cc:Work></rdf:RDF></metadata><defs
     id="defs52" /><sodipodi:namedview
     pagecolor="#ffffff"
     bordercolor="#666666"
     borderopacity="1"
     objecttolerance="10"
     gridtolerance="10"
     guidetolerance="10"
     inkscape:pageopacity="0"
     inkscape:pageshadow="2"
     inkscape:window-width="1600"
     inkscape:window-height="824"
     id="namedview50"
     showgrid="false"
     inkscape:zoom="1.233268"
     inkscape:cx="166.4319"
     inkscape:cy="111.36111"
     inkscape:window-x="0"
     inkscape:window-y="24"
     inkscape:window-maximized="1"
     inkscape:current-layer="Vrstva_1" /><g
     id="g4"
     style="fill-opacity:1;fill:#f5f5f5"><g
       id="g6"
       style="fill-opacity:1;fill:#f5f5f5"><path
         style="fill:#f5f5f5;fill-opacity:1"
         inkscape:connector-curvature="0"
         id="path8"
         d="m 27.792,173.133 c 4.253,0 8.084,0.718 11.491,2.152 3.408,1.434 6.31,3.468 8.708,6.1 2.395,2.632 4.233,5.787 5.516,9.466 1.284,3.678 1.925,7.761 1.925,12.25 0,4.424 -0.635,8.461 -1.899,12.121 -1.264,3.664 -3.087,6.804 -5.467,9.42 -2.379,2.613 -5.282,4.646 -8.707,6.097 -3.425,1.448 -7.281,2.175 -11.566,2.175 -4.32,0 -8.201,-0.713 -11.644,-2.148 -3.442,-1.434 -6.362,-3.457 -8.757,-6.071 C 4.996,222.077 3.165,218.939 1.899,215.278 0.634,211.615 0,207.557 0,203.101 c 0,-4.489 0.643,-8.572 1.925,-12.25 1.282,-3.679 3.13,-6.834 5.543,-9.466 2.412,-2.632 5.33,-4.666 8.757,-6.1 3.425,-1.434 7.281,-2.152 11.567,-2.152 z M 27.69,222.59 c 2.429,0 4.582,-0.494 6.453,-1.493 1.874,-0.996 3.46,-2.363 4.76,-4.099 1.299,-1.742 2.277,-3.796 2.935,-6.18 0.659,-2.378 0.988,-4.949 0.988,-7.718 0,-2.734 -0.321,-5.289 -0.961,-7.669 -0.641,-2.379 -1.596,-4.448 -2.859,-6.203 -1.265,-1.754 -2.827,-3.128 -4.682,-4.123 -1.857,-0.994 -4,-1.494 -6.431,-1.494 -2.428,0 -4.598,0.489 -6.503,1.472 -1.908,0.976 -3.501,2.335 -4.784,4.073 -1.284,1.734 -2.263,3.796 -2.938,6.174 -0.674,2.38 -1.011,4.97 -1.011,7.771 0,2.769 0.337,5.34 1.011,7.718 0.675,2.384 1.655,4.438 2.938,6.18 1.283,1.735 2.852,3.103 4.707,4.099 1.854,0.998 3.981,1.492 6.377,1.492 z" /><path
         style="fill:#f5f5f5;fill-opacity:1"
         inkscape:connector-curvature="0"
         id="path10"
         d="m 73.91,195.307 c 2.24,-1.825 3.458,-3.265 5.519,-4.33 2.058,-1.062 4.555,-1.593 7.392,-1.593 3.036,0 5.635,0.581 7.745,1.745 2.108,1.163 3.817,2.734 5.099,4.706 1.283,1.977 2.218,4.245 2.792,6.81 0.571,2.566 0.865,5.263 0.865,8.099 0,3.209 -0.38,6.168 -1.141,8.886 -0.758,2.715 -1.889,5.064 -3.39,7.036 -1.5,1.972 -3.349,3.507 -5.542,4.604 -2.195,1.098 -4.708,1.644 -7.542,1.644 -2.397,0 -4.251,-0.31 -6.074,-0.935 -1.823,-0.624 -3.484,-1.646 -4.604,-3.059 l 0,18.954 -12.321,0 0,-58.247 11.202,0 0,5.68 z m 1.12,25.611 c 1.12,1.081 2.183,1.897 3.517,2.455 1.332,0.559 2.681,0.836 4.3,0.836 2.632,0 4.596,-1.119 6.014,-3.365 1.415,-2.244 2.092,-5.611 2.092,-10.101 0,-8.571 -2.581,-12.856 -7.71,-12.856 -1.654,0 -2.958,0.489 -4.41,1.47 -1.452,0.975 -2.683,2.359 -3.803,4.149 l 0,17.412 z" /><path
         style="fill:#f5f5f5;fill-opacity:1"
         inkscape:connector-curvature="0"
         id="path12"
         d="m 131.015,232.914 c -3.512,0 -6.631,-0.494 -9.366,-1.491 -2.732,-0.994 -5.034,-2.43 -6.908,-4.3 -1.874,-1.874 -3.29,-4.154 -4.253,-6.834 -0.96,-2.684 -1.441,-5.73 -1.441,-9.139 0,-3.444 0.49,-6.521 1.466,-9.238 0.981,-2.717 2.39,-5.024 4.228,-6.91 1.839,-1.89 4.084,-3.333 6.731,-4.329 2.649,-0.992 5.662,-1.492 9.036,-1.492 3.274,0 6.217,0.475 8.833,1.42 2.615,0.944 4.836,2.326 6.655,4.147 1.825,1.821 2.989,4.075 3.969,6.756 0.979,2.688 1.233,5.766 1.233,9.24 l 0,2.406 -29.7,0 c 0.034,2.241 0.295,4.147 0.785,5.631 0.488,1.487 1.155,2.836 1.997,3.802 0.845,0.96 1.832,1.731 2.963,2.168 1.131,0.439 2.389,0.691 3.771,0.691 2.262,0 4.118,-0.244 5.57,-1.188 1.448,-0.948 2.428,-2.143 2.935,-4.383 l 11.336,0 c -0.404,2.24 -1.18,3.915 -2.328,5.588 -1.146,1.666 -2.579,2.964 -4.301,4.092 -1.721,1.132 -3.697,1.94 -5.925,2.532 -2.225,0.591 -4.655,0.831 -7.286,0.831 z m 8.606,-26.484 c -0.271,-3.361 -1.172,-6.136 -2.711,-7.841 -1.535,-1.706 -3.668,-2.516 -6.402,-2.516 -2.496,0 -4.563,0.866 -6.201,2.722 -1.636,1.854 -2.54,4.273 -2.708,7.635 l 18.022,0 z" /><path
         style="fill:#f5f5f5;fill-opacity:1"
         inkscape:connector-curvature="0"
         id="path14"
         d="m 170.242,195.411 c 2.239,-2.097 4.074,-3.655 6.269,-4.688 2.191,-1.026 4.698,-1.543 7.094,-1.543 9.617,0 14.641,5.146 14.641,15.439 l 0,27.574 -12.322,0 0,-26.512 c 0,-2.431 -0.502,-4.304 -1.347,-5.619 -0.844,-1.314 -2.366,-1.971 -4.492,-1.971 -1.757,0 -3.13,0.494 -4.614,1.491 -1.484,0.994 -2.988,2.302 -4.108,3.923 l 0,28.688 -12.323,0 0,-42.566 11.202,0 0,5.784 z" /><path
         style="fill:#f5f5f5;fill-opacity:1"
         inkscape:connector-curvature="0"
         id="path16"
         d="m 256.66,232.194 -12.757,0 -4.758,-13.443 -20.603,0 -4.559,13.443 -12.25,0 20.199,-58.248 13.617,0 21.111,58.248 z m -20.4,-23.525 -7.594,-23.743 -7.341,23.743 14.935,0 z" /><path
         style="fill:#f5f5f5;fill-opacity:1"
         inkscape:connector-curvature="0"
         id="path18"
         d="m 271.054,232.194 -11.201,0 0,-58.248 11.201,0 0,58.248 z" /><path
         style="fill:#f5f5f5;fill-opacity:1"
         inkscape:connector-curvature="0"
         id="path20"
         d="m 304.658,232.103 c -2.24,0.409 -4.178,0.611 -6.742,0.611 -3.139,0 -5.676,-0.419 -7.394,-1.243 -1.719,-0.821 -3.041,-1.996 -3.85,-3.513 -0.811,-1.52 -1.546,-3.354 -1.697,-5.495 -0.15,-2.142 -0.48,-4.528 -0.48,-7.161 l 0,-16.714 -5.601,0 0,-8.961 5.601,0 0,-10.081 12.321,0 0,10.081 6.722,0 0,8.961 -6.722,0 0,18.888 c 0,1.317 0.158,2.403 0.344,3.265 0.186,0.864 0.479,1.53 0.819,2.001 0.338,0.472 0.766,0.805 1.255,0.99 0.49,0.184 1.256,0.278 1.864,0.278 1.146,0 2.439,-0.101 3.56,-0.306 l 0,8.399 z" /></g></g><g
     id="g22"
     style="fill-opacity:1;fill:#f5f5f5"><path
       style="fill:#f5f5f5;fill-opacity:1"
       inkscape:connector-curvature="0"
       id="path24"
       d="m 117.49,270.278 -4.643,0 -7.254,-11.229 -2.561,2.323 0,8.906 -3.36,0 0,-30.244 3.36,0 0,16.938 8.701,-9.097 4.904,0 -8.297,8.416 9.15,13.987 z" /><path
       style="fill:#f5f5f5;fill-opacity:1"
       inkscape:connector-curvature="0"
       id="path26"
       d="m 129.284,247.665 c 1.556,0 2.967,0.255 4.229,0.768 1.264,0.515 2.349,1.259 3.249,2.242 0.903,0.98 1.596,2.183 2.084,3.605 0.484,1.422 0.729,3.041 0.729,4.864 0,1.801 -0.245,3.418 -0.729,4.839 -0.488,1.422 -1.181,2.625 -2.084,3.604 -0.9,0.985 -1.985,1.734 -3.249,2.257 -1.262,0.52 -2.673,0.782 -4.229,0.782 -1.556,0 -2.966,-0.259 -4.229,-0.771 -1.264,-0.511 -2.346,-1.252 -3.247,-2.226 -0.903,-0.973 -1.595,-2.168 -2.082,-3.593 -0.488,-1.421 -0.729,-3.054 -0.729,-4.893 0,-1.835 0.246,-3.469 0.743,-4.889 0.494,-1.423 1.192,-2.627 2.094,-3.609 0.901,-0.981 1.981,-1.722 3.246,-2.224 1.267,-0.508 2.669,-0.756 4.204,-0.756 z m 0,19.885 c 0.921,0 1.766,-0.177 2.534,-0.531 0.77,-0.354 1.428,-0.881 1.987,-1.591 0.556,-0.705 0.985,-1.583 1.287,-2.637 0.298,-1.054 0.451,-2.267 0.451,-3.647 0,-1.413 -0.158,-2.649 -0.468,-3.713 -0.308,-1.059 -0.741,-1.939 -1.296,-2.639 -0.559,-0.697 -1.217,-1.221 -1.976,-1.576 -0.762,-0.354 -1.6,-0.531 -2.521,-0.531 -0.918,0 -1.763,0.177 -2.531,0.531 -0.771,0.355 -1.433,0.879 -1.988,1.576 -0.556,0.699 -0.991,1.58 -1.3,2.639 -0.309,1.063 -0.464,2.3 -0.464,3.713 0,1.381 0.151,2.594 0.452,3.647 0.298,1.054 0.728,1.932 1.285,2.637 0.556,0.71 1.218,1.237 1.988,1.591 0.77,0.355 1.624,0.531 2.56,0.531 z" /><path
       style="fill:#f5f5f5;fill-opacity:1"
       inkscape:connector-curvature="0"
       id="path28"
       d="m 147.839,250.951 c 2.24,-2.191 3.844,-3.286 6.281,-3.286 4.948,0 7.16,2.693 7.16,8.088 l 0,14.525 -3.36,0 0,-14.369 c 0,-1.8 -0.319,-3.092 -0.969,-3.87 -0.644,-0.776 -1.706,-1.166 -3.167,-1.166 -1.984,0 -3.705,1.166 -5.945,3.5 l 0,15.905 -3.36,0 0,-22.403 3.36,0 0,3.076 z" /><path
       style="fill:#f5f5f5;fill-opacity:1"
       inkscape:connector-curvature="0"
       id="path30"
       d="m 172.481,251.236 0,19.042 -4.48,0 0,-19.042 -3.36,0 0,-3.361 3.36,0 0,-1.669 c 0,-4.632 1.997,-6.949 6.097,-6.949 1.256,0 2.864,0.078 2.864,0.238 l 0,3.395 c 0,-0.07 -0.515,-0.118 -0.9,-0.145 -0.387,-0.025 -0.65,-0.04 -1.06,-0.04 -0.951,0 -1.515,0.268 -1.977,0.795 -0.462,0.53 -0.544,1.449 -0.544,2.759 l 0,1.616 4.48,0 0,3.361 -4.48,0 z" /><path
       style="fill:#f5f5f5;fill-opacity:1"
       inkscape:connector-curvature="0"
       id="path32"
       d="m 188.847,270.626 c -1.606,0 -3.068,-0.263 -4.387,-0.782 -1.319,-0.522 -2.446,-1.271 -3.383,-2.257 -0.94,-0.979 -1.66,-2.183 -2.177,-3.604 -0.514,-1.421 -0.768,-3.038 -0.768,-4.839 0,-1.803 0.252,-3.413 0.759,-4.837 0.503,-1.426 1.205,-2.627 2.107,-3.609 0.901,-0.978 1.979,-1.729 3.246,-2.249 1.265,-0.526 2.656,-0.784 4.182,-0.784 1.549,0 2.96,0.255 4.227,0.768 1.264,0.515 2.345,1.259 3.244,2.242 0.901,0.98 1.371,2.183 1.852,3.605 0.488,1.422 0.496,3.041 0.496,4.864 l 0,1.053 -16.058,0 c 0.091,1.119 0.323,2.341 0.692,3.277 0.372,0.938 0.856,1.68 1.449,2.291 0.588,0.609 1.271,1.051 2.041,1.349 0.766,0.299 1.59,0.444 2.477,0.444 0.671,0 1.327,-0.093 1.96,-0.27 0.637,-0.178 1.209,-0.436 1.712,-0.77 0.505,-0.336 0.913,-0.753 1.235,-1.256 0.314,-0.505 0.491,-0.586 0.529,-1.706 l 4.029,0 c -0.161,1.12 -0.508,2.135 -1.045,3.018 -0.543,0.886 -1.231,1.622 -2.07,2.219 -0.84,0.608 -1.798,1.06 -2.877,1.371 -1.077,0.309 -2.237,0.462 -3.472,0.462 z m 5.754,-13.791 c -0.317,-2.239 -1.024,-3.623 -2.121,-4.666 -1.1,-1.039 -2.449,-1.524 -4.053,-1.524 -0.784,0 -1.506,0.15 -2.18,0.403 -0.674,0.258 -1.277,0.66 -1.816,1.18 -0.542,0.52 -0.997,1.103 -1.366,1.897 -0.372,0.798 -0.635,1.591 -0.792,2.71 l 12.328,0 z" /><path
       style="fill:#f5f5f5;fill-opacity:1"
       inkscape:connector-curvature="0"
       id="path34"
       d="m 213.928,251.719 c 0,-0.176 -0.948,-0.265 -2.012,-0.265 -1.96,0 -3.59,1.043 -4.71,3.127 l 0,15.696 -4.48,0 0,-22.403 4.48,0 0,3.342 c 1.12,-2.367 3.131,-3.552 5.323,-3.552 0.546,0 1.398,0.052 1.398,0.155 l 0,3.9 z" /><path
       style="fill:#f5f5f5;fill-opacity:1"
       inkscape:connector-curvature="0"
       id="path36"
       d="m 226.498,270.626 c -1.606,0 -3.07,-0.263 -4.389,-0.782 -1.317,-0.522 -2.441,-1.271 -3.378,-2.257 -0.938,-0.979 -1.663,-2.183 -2.176,-3.604 -0.516,-1.421 -0.771,-3.038 -0.771,-4.839 0,-1.803 0.254,-3.413 0.757,-4.837 0.506,-1.426 1.206,-2.627 2.107,-3.609 0.905,-0.978 1.981,-1.729 3.249,-2.249 1.264,-0.526 2.656,-0.784 4.176,-0.784 1.555,0 2.965,0.255 4.229,0.768 1.267,0.515 2.347,1.259 3.251,2.242 0.898,0.98 1.578,2.183 2.063,3.605 0.484,1.422 0.712,3.041 0.712,4.864 l 0,1.053 -16.486,0 c 0.088,1.119 0.318,2.341 0.688,3.277 0.375,0.938 0.855,1.68 1.447,2.291 0.59,0.609 1.271,1.051 2.042,1.349 0.766,0.299 1.592,0.444 2.478,0.444 0.674,0 1.325,-0.093 1.96,-0.27 0.64,-0.178 1.212,-0.436 1.713,-0.77 0.501,-0.336 0.915,-0.753 1.229,-1.256 0.319,-0.505 0.496,-0.586 0.532,-1.706 l 4.031,0 c -0.159,1.12 -0.51,2.135 -1.048,3.018 -0.538,0.886 -1.229,1.622 -2.067,2.219 -0.84,0.608 -1.799,1.06 -2.876,1.371 -1.079,0.309 -2.24,0.462 -3.473,0.462 z m 5.753,-13.791 c -0.318,-2.239 -1.023,-3.623 -2.119,-4.666 -1.098,-1.039 -2.453,-1.524 -4.059,-1.524 -0.778,0 -1.501,0.15 -2.175,0.403 -0.67,0.258 -1.278,0.66 -1.813,1.18 -0.538,0.52 -1,1.103 -1.367,1.897 -0.372,0.798 -0.637,1.591 -0.797,2.71 l 12.33,0 z" /><path
       style="fill:#f5f5f5;fill-opacity:1"
       inkscape:connector-curvature="0"
       id="path38"
       d="m 244.17,250.951 c 2.241,-2.191 4.407,-3.286 6.844,-3.286 4.953,0 7.719,2.693 7.719,8.088 l 0,14.525 -4.48,0 0,-14.369 c 0,-1.8 -0.092,-3.092 -0.734,-3.87 -0.646,-0.776 -1.823,-1.166 -3.289,-1.166 -1.979,0 -3.817,1.166 -6.059,3.5 l 0,15.905 -3.359,0 0,-22.403 3.359,0 0,3.076 z" /><path
       style="fill:#f5f5f5;fill-opacity:1"
       inkscape:connector-curvature="0"
       id="path40"
       d="m 273.168,270.626 c -1.558,0 -2.97,-0.259 -4.232,-0.771 -1.267,-0.511 -2.345,-1.252 -3.249,-2.226 -0.901,-0.973 -1.592,-2.168 -2.078,-3.593 -0.485,-1.421 -0.732,-3.054 -0.732,-4.893 0,-1.835 0.247,-3.469 0.744,-4.889 0.494,-1.423 1.191,-2.627 2.096,-3.609 0.899,-0.981 1.982,-1.722 3.246,-2.224 1.265,-0.51 2.665,-0.758 4.206,-0.758 1.181,0 2.288,0.153 3.312,0.463 1.026,0.309 1.921,0.762 2.693,1.353 0.77,0.591 1.402,1.268 1.894,2.15 0.495,0.888 0.813,1.845 0.957,2.966 l -4.032,0 c -0.035,0 -0.186,-1.174 -0.45,-1.677 -0.263,-0.503 -0.613,-0.893 -1.048,-1.23 -0.435,-0.333 -0.938,-0.576 -1.512,-0.753 -0.574,-0.176 -1.18,-0.259 -1.813,-0.259 -0.923,0 -1.767,0.182 -2.532,0.536 -0.771,0.355 -1.434,0.879 -1.993,1.577 -0.556,0.699 -0.985,1.581 -1.295,2.64 -0.313,1.063 -0.466,2.301 -0.466,3.714 0,1.381 0.148,2.594 0.447,3.647 0.304,1.054 0.731,1.932 1.287,2.637 0.561,0.71 1.222,1.237 1.993,1.591 0.769,0.354 1.617,0.531 2.559,0.531 0.634,0 1.239,-0.083 1.813,-0.252 0.574,-0.169 1.077,-0.421 1.512,-0.756 0.435,-0.337 0.785,-0.75 1.048,-1.254 0.265,-0.502 0.415,-0.611 0.45,-1.731 l 4.032,0 c -0.145,1.12 -0.462,2.154 -0.957,3.029 -0.491,0.875 -1.124,1.61 -1.894,2.207 -0.772,0.608 -1.667,1.06 -2.693,1.371 -1.025,0.31 -2.132,0.463 -3.313,0.463 z" /><path
       style="fill:#f5f5f5;fill-opacity:1"
       inkscape:connector-curvature="0"
       id="path42"
       d="m 294.774,270.626 c -1.604,0 -3.07,-0.263 -4.383,-0.782 -1.321,-0.522 -2.446,-1.271 -3.387,-2.257 -0.937,-0.979 -1.66,-2.183 -2.173,-3.604 -0.515,-1.421 -0.771,-3.038 -0.771,-4.839 0,-1.803 0.255,-3.413 0.761,-4.837 0.501,-1.426 1.204,-2.627 2.107,-3.609 0.898,-0.978 1.981,-1.729 3.246,-2.249 1.268,-0.526 2.652,-0.784 4.177,-0.784 1.553,0 2.964,0.255 4.231,0.768 1.262,0.515 2.343,1.259 3.249,2.242 0.896,0.98 1.604,2.183 2.088,3.605 0.485,1.422 0.738,3.041 0.738,4.864 l 0,1.053 -16.537,0 c 0.09,1.119 0.317,2.341 0.688,3.277 0.371,0.938 0.855,1.68 1.448,2.291 0.59,0.609 1.271,1.051 2.043,1.349 0.769,0.299 1.593,0.444 2.476,0.444 0.674,0 1.327,-0.093 1.962,-0.27 0.636,-0.178 1.208,-0.436 1.711,-0.77 0.507,-0.336 0.914,-0.753 1.233,-1.256 0.319,-0.505 0.494,-0.586 0.529,-1.706 l 4.032,0 c -0.16,1.12 -0.507,2.135 -1.048,3.018 -0.54,0.886 -1.228,1.622 -2.064,2.219 -0.844,0.608 -1.804,1.06 -2.88,1.371 -1.081,0.309 -2.238,0.462 -3.476,0.462 z m 5.753,-13.791 c -0.317,-2.239 -1.02,-3.623 -2.117,-4.666 -1.099,-1.039 -2.451,-1.524 -4.059,-1.524 -0.778,0 -1.501,0.15 -2.175,0.403 -0.674,0.258 -1.28,0.66 -1.813,1.18 -0.541,0.52 -0.998,1.103 -1.368,1.897 -0.369,0.798 -0.639,1.591 -0.798,2.71 l 12.33,0 z" /></g><path
     style="fill:#701512"
     inkscape:connector-curvature="0"
     id="path44"
     d="m 170.806,45.983 c -5.543,-3.281 -12.013,-5.164 -18.924,-5.164 -6.71,0 -13.008,1.777 -18.445,4.889 L 113.023,10.348 C 124.462,3.767 137.73,0 151.884,0 c 14.361,0 27.815,3.875 39.375,10.646 l -20.453,35.337 z" /><path
     style="fill:#d77a68"
     inkscape:connector-curvature="0"
     id="path46"
     d="m 115.904,68.481 c -0.81,3.05 -1.243,6.257 -1.243,9.563 0,20.555 16.666,37.22 37.221,37.22 10.319,0 19.657,-4.196 26.399,-10.981 l 28.863,28.87 c -14.128,14.165 -33.668,22.935 -55.261,22.935 -43.101,0 -78.042,-34.943 -78.042,-78.043 0,-7.02 0.927,-13.822 2.659,-20.291 l 39.404,10.727 z" /><path
     style="fill:#be1823"
     inkscape:connector-curvature="0"
     id="path48"
     d="m 170.806,45.983 c 10.952,6.478 18.297,18.411 18.297,32.061 0,10.236 -4.129,19.512 -10.821,26.238 l 28.863,28.87 c 14.081,-14.12 22.781,-33.599 22.781,-55.108 0,-28.743 -15.532,-53.854 -38.667,-67.397 l -20.453,35.336 z" /></svg>