<?xml version="1.0" encoding="UTF-8"?>
<svg id="Layer_1" data-name="Layer 1" xmlns="http://www.w3.org/2000/svg" viewBox="0 0 365.71 100.59">
  <defs>
    <style>
      .cls-1 {
        fill: #1c1d1d;
      }

      .cls-1, .cls-2 {
        stroke-width: 0px;
      }

      .cls-2 {
        fill: #dc1e30;
      }
    </style>
  </defs>
  <g>
    <path class="cls-1" d="m53.05,53.81c0-1.55-.55-2.75-1.64-3.61-1.09-.86-3.02-1.76-5.77-2.68-2.75-.92-5-1.82-6.75-2.68-5.68-2.79-8.52-6.63-8.52-11.51,0-2.43.71-4.57,2.12-6.43,1.42-1.86,3.42-3.3,6.01-4.34,2.59-1.03,5.5-1.55,8.73-1.55s5.98.56,8.48,1.69c2.5,1.12,4.44,2.73,5.83,4.8,1.39,2.08,2.08,4.45,2.08,7.12h-10.54c0-1.79-.55-3.17-1.64-4.16-1.09-.98-2.58-1.48-4.44-1.48s-3.38.42-4.47,1.25c-1.09.83-1.64,1.89-1.64,3.18,0,1.12.6,2.14,1.81,3.06,1.21.91,3.32,1.86,6.36,2.83,3.03.97,5.52,2.02,7.47,3.15,4.74,2.73,7.11,6.5,7.11,11.3,0,3.84-1.45,6.85-4.34,9.04-2.89,2.19-6.86,3.28-11.9,3.28-3.55,0-6.77-.64-9.65-1.91-2.88-1.27-5.05-3.02-6.51-5.24-1.46-2.22-2.18-4.77-2.18-7.67h10.6c0,2.35.61,4.08,1.82,5.2,1.21,1.11,3.19,1.67,5.92,1.67,1.75,0,3.13-.38,4.14-1.13,1.01-.75,1.52-1.81,1.52-3.18Z"/>
    <path class="cls-1" d="m78.5,65.46h-10.18V19.2h10.18v46.26Z"/>
    <path class="cls-1" d="m83.42,24.44c0-1.45.52-2.65,1.57-3.58,1.04-.93,2.4-1.39,4.07-1.39s3.02.46,4.07,1.39c1.04.93,1.57,2.12,1.57,3.58s-.52,2.65-1.57,3.58c-1.04.93-2.4,1.39-4.07,1.39s-3.02-.46-4.07-1.39-1.57-2.12-1.57-3.58Zm10.78,41.02h-10.18v-32.59h10.18v32.59Z"/>
    <path class="cls-1" d="m98.05,48.93c0-5.16,1.11-9.23,3.34-12.2,2.23-2.97,5.34-4.46,9.34-4.46,2.91,0,5.36,1.14,7.35,3.43v-16.51h10.18v46.26h-9.13l-.51-3.49c-2.09,2.73-4.74,4.1-7.95,4.1-3.88,0-6.95-1.49-9.22-4.46-2.27-2.97-3.4-7.2-3.4-12.68Zm10.15.63c0,5.78,1.69,8.67,5.06,8.67,2.25,0,3.86-.94,4.82-2.83v-12.41c-.92-1.93-2.51-2.89-4.76-2.89-3.13,0-4.83,2.53-5.09,7.59l-.03,1.87Z"/>
    <path class="cls-1" d="m148.78,66.07c-5,0-9.05-1.49-12.14-4.47-3.09-2.98-4.64-6.86-4.64-11.64v-.84c0-3.33.62-6.27,1.85-8.83,1.23-2.55,3.04-4.52,5.41-5.92,2.37-1.4,5.18-2.09,8.43-2.09,4.58,0,8.19,1.42,10.84,4.26,2.65,2.84,3.98,6.8,3.98,11.88v3.95h-20.18c.36,1.83,1.15,3.26,2.38,4.31,1.22,1.04,2.81,1.57,4.76,1.57,3.21,0,5.72-1.12,7.53-3.37l4.64,5.48c-1.26,1.75-3.06,3.14-5.38,4.17-2.32,1.03-4.81,1.55-7.49,1.55Zm-1.14-25.96c-2.97,0-4.74,1.97-5.3,5.9h10.24v-.78c.04-1.63-.37-2.89-1.23-3.78-.86-.89-2.1-1.34-3.71-1.34Z"/>
    <path class="cls-1" d="m182.72,56.31c0-.86-.45-1.56-1.35-2.08-.9-.52-2.62-1.06-5.15-1.63-2.53-.56-4.62-1.3-6.27-2.21-1.65-.91-2.9-2.02-3.76-3.33-.86-1.3-1.3-2.8-1.3-4.49,0-2.99,1.24-5.46,3.7-7.39,2.47-1.94,5.7-2.91,9.7-2.91,4.3,0,7.75.97,10.36,2.92,2.61,1.95,3.92,4.51,3.92,7.68h-10.18c0-2.61-1.38-3.92-4.13-3.92-1.06,0-1.96.3-2.68.89-.72.59-1.08,1.33-1.08,2.21s.44,1.64,1.33,2.2c.88.56,2.29,1.02,4.23,1.39,1.94.36,3.64.79,5.11,1.3,4.9,1.69,7.35,4.71,7.35,9.07,0,2.97-1.32,5.39-3.96,7.26-2.64,1.87-6.06,2.8-10.26,2.8-2.79,0-5.28-.5-7.47-1.51-2.19-1-3.9-2.37-5.12-4.1-1.23-1.73-1.84-3.54-1.84-5.45h9.49c.04,1.51.54,2.6,1.51,3.3.96.69,2.2,1.04,3.71,1.04,1.38,0,2.42-.28,3.12-.84.69-.56,1.04-1.3,1.04-2.2Z"/>
    <path class="cls-1" d="m207.72,57.33h18.4v8.13h-28.98V21.61h10.57v35.72Z"/>
    <path class="cls-1" d="m228.61,24.44c0-1.45.52-2.65,1.57-3.58,1.04-.93,2.4-1.39,4.07-1.39s3.02.46,4.07,1.39c1.04.93,1.57,2.12,1.57,3.58s-.52,2.65-1.57,3.58c-1.04.93-2.4,1.39-4.07,1.39s-3.02-.46-4.07-1.39c-1.04-.93-1.57-2.12-1.57-3.58Zm10.78,41.02h-10.18v-32.59h10.18v32.59Z"/>
    <path class="cls-1" d="m257.55,53.38l5.15-20.51h10.69l-10.63,32.59h-10.36l-10.63-32.59h10.72l5.06,20.51Z"/>
    <path class="cls-1" d="m289.86,66.07c-5,0-9.05-1.49-12.14-4.47-3.09-2.98-4.64-6.86-4.64-11.64v-.84c0-3.33.62-6.27,1.85-8.83,1.24-2.55,3.04-4.52,5.41-5.92,2.37-1.4,5.18-2.09,8.43-2.09,4.58,0,8.19,1.42,10.84,4.26,2.65,2.84,3.98,6.8,3.98,11.88v3.95h-20.18c.36,1.83,1.15,3.26,2.38,4.31,1.23,1.04,2.81,1.57,4.76,1.57,3.21,0,5.72-1.12,7.53-3.37l4.64,5.48c-1.26,1.75-3.06,3.14-5.38,4.17-2.32,1.03-4.81,1.55-7.48,1.55Zm-1.15-25.96c-2.97,0-4.74,1.97-5.3,5.9h10.24v-.78c.04-1.63-.37-2.89-1.23-3.78-.86-.89-2.1-1.34-3.71-1.34Z"/>
  </g>
  <g>
    <path class="cls-1" d="m331.38,11.99h-2.1v5.68h-3.87V1.61h6.32c1.9,0,3.39.42,4.47,1.27,1.07.84,1.61,2.04,1.61,3.58,0,1.12-.23,2.04-.68,2.78-.45.73-1.16,1.33-2.12,1.78l3.35,6.48v.17h-4.15l-2.83-5.68Zm-2.1-2.98h2.45c.74,0,1.29-.19,1.66-.58.37-.39.56-.93.56-1.62s-.19-1.24-.56-1.63c-.37-.39-.93-.59-1.65-.59h-2.45v4.42Z"/>
    <path class="cls-1" d="m350.02,10.85h-6.09v3.84h7.19v2.98h-11.06V1.61h11.08v2.99h-7.21v3.39h6.09v2.87Z"/>
    <path class="cls-1" d="m365.68,12.23c-.05,1.12-.35,2.1-.9,2.96-.55.86-1.33,1.52-2.32,1.99-1,.47-2.13.71-3.41.71-2.11,0-3.77-.69-4.98-2.06-1.21-1.37-1.82-3.32-1.82-5.82v-.79c0-1.57.27-2.95.82-4.13.55-1.18,1.34-2.09,2.37-2.73,1.03-.64,2.22-.97,3.57-.97,1.95,0,3.51.51,4.7,1.54,1.18,1.03,1.86,2.44,2.02,4.24h-3.86c-.03-.98-.28-1.68-.74-2.11-.46-.43-1.17-.64-2.12-.64s-1.67.36-2.12,1.08c-.45.72-.68,1.87-.71,3.45v1.14c0,1.71.21,2.94.64,3.67.43.74,1.17,1.1,2.22,1.1.89,0,1.57-.21,2.04-.63s.72-1.08.75-2h3.85Z"/>
  </g>
  <path class="cls-2" d="m315.2,9.61c0,5.31-4.3,9.61-9.61,9.61s-9.61-4.3-9.61-9.61,4.3-9.61,9.61-9.61,9.61,4.3,9.61,9.61Z"/>
  <g>
    <path class="cls-1" d="m3.12,90.83v5.33H0v-15.14h5.91c1.14,0,2.14.21,3,.62.86.42,1.53,1.01,1.99,1.77.46.77.7,1.64.7,2.61,0,1.48-.51,2.65-1.52,3.51-1.02.86-2.42,1.28-4.22,1.28h-2.73Zm0-2.53h2.79c.83,0,1.45-.19,1.89-.58.43-.39.65-.94.65-1.66s-.22-1.34-.66-1.8c-.44-.46-1.04-.69-1.81-.71h-2.86v4.75Z"/>
    <path class="cls-1" d="m19.61,87.73c-.41-.06-.77-.08-1.08-.08-1.14,0-1.88.38-2.24,1.15v7.36h-3v-11.25h2.84l.08,1.34c.6-1.03,1.44-1.55,2.5-1.55.33,0,.64.04.94.13l-.04,2.89Z"/>
    <path class="cls-1" d="m20.55,90.43c0-1.12.21-2.11.64-2.98.43-.87,1.05-1.55,1.86-2.03.81-.48,1.75-.72,2.81-.72,1.52,0,2.76.46,3.72,1.39.96.93,1.5,2.19,1.61,3.78l.02.77c0,1.73-.48,3.11-1.44,4.15-.96,1.04-2.26,1.56-3.88,1.56s-2.92-.52-3.88-1.56c-.97-1.04-1.45-2.45-1.45-4.24v-.14Zm3,.21c0,1.07.2,1.89.6,2.45.4.57.98.85,1.73.85s1.3-.28,1.7-.84c.41-.56.61-1.45.61-2.68,0-1.05-.21-1.86-.61-2.44-.41-.58-.98-.86-1.73-.86s-1.3.29-1.71.86c-.4.57-.6,1.46-.6,2.66Z"/>
    <path class="cls-1" d="m33.69,96.16v-9.05h-1.67v-2.2h1.67v-.96c0-1.26.36-2.24,1.09-2.94.72-.7,1.74-1.04,3.04-1.04.42,0,.93.07,1.53.21l-.03,2.31c-.25-.06-.55-.09-.91-.09-1.13,0-1.69.53-1.69,1.6v.91h2.24v2.2h-2.24v9.05h-3.01Z"/>
    <path class="cls-1" d="m45.39,96.37c-1.65,0-2.99-.51-4.03-1.52-1.04-1.01-1.55-2.36-1.55-4.04v-.29c0-1.13.22-2.14.66-3.03.44-.89,1.06-1.58,1.86-2.06.8-.48,1.71-.72,2.74-.72,1.54,0,2.75.48,3.63,1.46.88.97,1.33,2.35,1.33,4.13v1.23h-7.16c.1.73.39,1.32.88,1.77.49.44,1.11.67,1.86.67,1.16,0,2.06-.42,2.71-1.26l1.48,1.65c-.45.64-1.06,1.13-1.83,1.49-.77.36-1.62.54-2.56.54Zm-.34-9.24c-.6,0-1.08.2-1.45.61-.37.4-.61.98-.71,1.73h4.18v-.24c-.01-.67-.19-1.19-.54-1.55-.35-.37-.84-.55-1.48-.55Z"/>
    <path class="cls-1" d="m57.73,93.05c0-.37-.18-.66-.55-.87-.36-.21-.95-.4-1.75-.57-2.68-.56-4.01-1.7-4.01-3.41,0-1,.41-1.83,1.24-2.5.83-.67,1.91-1,3.25-1,1.43,0,2.57.34,3.43,1.01.86.67,1.28,1.55,1.28,2.62h-3c0-.43-.14-.79-.42-1.07-.28-.28-.71-.42-1.3-.42-.51,0-.9.11-1.17.34-.28.23-.42.52-.42.87,0,.33.16.6.47.81.32.2.85.38,1.6.53.75.15,1.38.32,1.89.5,1.59.58,2.38,1.59,2.38,3.03,0,1.03-.44,1.86-1.32,2.49-.88.63-2.02.95-3.41.95-.94,0-1.78-.17-2.51-.5-.73-.34-1.3-.8-1.72-1.38-.42-.59-.62-1.22-.62-1.9h2.85c.03.53.22.94.59,1.23.37.28.86.43,1.48.43.58,0,1.01-.11,1.3-.33.29-.22.44-.5.44-.86Z"/>
    <path class="cls-1" d="m68.63,93.05c0-.37-.18-.66-.55-.87-.36-.21-.95-.4-1.75-.57-2.67-.56-4.01-1.7-4.01-3.41,0-1,.41-1.83,1.24-2.5.83-.67,1.91-1,3.25-1,1.43,0,2.57.34,3.43,1.01.86.67,1.28,1.55,1.28,2.62h-3c0-.43-.14-.79-.42-1.07-.28-.28-.71-.42-1.3-.42-.51,0-.9.11-1.17.34-.28.23-.41.52-.41.87,0,.33.16.6.47.81.32.2.85.38,1.6.53.75.15,1.38.32,1.89.5,1.59.58,2.38,1.59,2.38,3.03,0,1.03-.44,1.86-1.32,2.49-.88.63-2.02.95-3.41.95-.94,0-1.78-.17-2.51-.5-.73-.34-1.3-.8-1.72-1.38-.42-.59-.62-1.22-.62-1.9h2.85c.03.53.23.94.59,1.23.37.28.86.43,1.48.43.58,0,1.01-.11,1.3-.33.29-.22.44-.5.44-.86Z"/>
    <path class="cls-1" d="m73.35,82c0-.45.15-.82.45-1.11.3-.29.71-.44,1.23-.44s.92.15,1.23.44c.3.29.46.66.46,1.11s-.15.83-.46,1.12-.72.44-1.22.44-.91-.15-1.22-.44-.46-.67-.46-1.12Zm3.19,14.16h-3.02v-11.25h3.02v11.25Z"/>
    <path class="cls-1" d="m78.4,90.43c0-1.12.21-2.11.64-2.98.43-.87,1.05-1.55,1.86-2.03.81-.48,1.75-.72,2.81-.72,1.52,0,2.76.46,3.72,1.39.96.93,1.5,2.19,1.61,3.78l.02.77c0,1.73-.48,3.11-1.45,4.15-.96,1.04-2.26,1.56-3.88,1.56s-2.92-.52-3.88-1.56c-.97-1.04-1.45-2.45-1.45-4.24v-.14Zm3,.21c0,1.07.2,1.89.6,2.45.4.57.98.85,1.73.85s1.3-.28,1.71-.84c.41-.56.61-1.45.61-2.68,0-1.05-.2-1.86-.61-2.44s-.98-.86-1.73-.86-1.3.29-1.71.86c-.4.57-.6,1.46-.6,2.66Z"/>
    <path class="cls-1" d="m93.69,84.91l.09,1.3c.8-1,1.88-1.51,3.23-1.51,1.19,0,2.08.35,2.66,1.05.58.7.88,1.75.89,3.14v7.27h-3v-7.21c0-.64-.14-1.1-.42-1.39-.28-.29-.74-.43-1.38-.43-.85,0-1.48.36-1.9,1.08v7.95h-3v-11.25h2.83Z"/>
    <path class="cls-1" d="m109.3,96.16c-.14-.27-.24-.61-.3-1.01-.73.81-1.67,1.22-2.84,1.22-1.1,0-2.02-.32-2.74-.96-.72-.64-1.09-1.44-1.09-2.41,0-1.19.44-2.11,1.33-2.74s2.16-.96,3.83-.97h1.38v-.65c0-.52-.13-.94-.4-1.25-.27-.31-.69-.47-1.26-.47-.51,0-.9.12-1.19.36-.29.24-.43.58-.43,1h-3c0-.65.2-1.25.6-1.81.4-.55.97-.99,1.71-1.31.73-.31,1.56-.47,2.47-.47,1.39,0,2.49.35,3.3,1.04.81.7,1.22,1.68,1.22,2.94v4.88c0,1.07.16,1.88.45,2.42v.18h-3.04Zm-2.48-2.09c.44,0,.85-.1,1.23-.3.37-.2.65-.46.83-.8v-1.93h-1.12c-1.5,0-2.3.52-2.4,1.56v.18c-.01.37.12.68.38.93.26.24.62.36,1.08.36Z"/>
    <path class="cls-1" d="m117.28,96.16h-3.02v-15.97h3.02v15.97Z"/>
    <path class="cls-1" d="m137.14,91.12c-.12,1.63-.72,2.91-1.8,3.85-1.09.94-2.51,1.4-4.29,1.4-1.94,0-3.47-.65-4.58-1.96-1.11-1.31-1.67-3.1-1.67-5.38v-.93c0-1.46.26-2.74.77-3.85.51-1.11,1.25-1.96,2.2-2.55.95-.59,2.06-.89,3.32-.89,1.75,0,3.15.47,4.22,1.4,1.07.94,1.68,2.25,1.85,3.94h-3.12c-.08-.98-.35-1.69-.82-2.13-.47-.44-1.18-.66-2.14-.66-1.04,0-1.82.37-2.33,1.12-.52.75-.78,1.9-.8,3.47v1.14c0,1.64.25,2.83.74,3.59.5.76,1.28,1.13,2.34,1.13.96,0,1.68-.22,2.16-.66.47-.44.75-1.12.82-2.04h3.12Z"/>
    <path class="cls-1" d="m138.57,90.43c0-1.12.21-2.11.64-2.98.43-.87,1.05-1.55,1.86-2.03.81-.48,1.75-.72,2.81-.72,1.52,0,2.76.46,3.72,1.39.96.93,1.5,2.19,1.61,3.78l.02.77c0,1.73-.48,3.11-1.44,4.15-.96,1.04-2.26,1.56-3.88,1.56s-2.92-.52-3.88-1.56c-.97-1.04-1.45-2.45-1.45-4.24v-.14Zm3,.21c0,1.07.2,1.89.6,2.45.4.57.98.85,1.73.85s1.3-.28,1.7-.84c.41-.56.61-1.45.61-2.68,0-1.05-.21-1.86-.61-2.44-.41-.58-.98-.86-1.73-.86s-1.3.29-1.71.86c-.4.57-.6,1.46-.6,2.66Z"/>
    <path class="cls-1" d="m153.86,84.91l.09,1.3c.8-1,1.88-1.51,3.23-1.51,1.19,0,2.08.35,2.66,1.05.58.7.88,1.75.89,3.14v7.27h-3v-7.21c0-.64-.14-1.1-.42-1.39-.28-.29-.74-.43-1.38-.43-.85,0-1.48.36-1.9,1.08v7.95h-3v-11.25h2.83Z"/>
    <path class="cls-1" d="m163.68,96.16v-9.05h-1.67v-2.2h1.67v-.96c0-1.26.36-2.24,1.09-2.94.72-.7,1.74-1.04,3.04-1.04.41,0,.92.07,1.53.21l-.03,2.31c-.25-.06-.55-.09-.91-.09-1.13,0-1.7.53-1.7,1.6v.91h2.24v2.2h-2.24v9.05h-3.01Z"/>
    <path class="cls-1" d="m175.39,96.37c-1.65,0-2.99-.51-4.03-1.52-1.04-1.01-1.55-2.36-1.55-4.04v-.29c0-1.13.22-2.14.65-3.03.44-.89,1.06-1.58,1.86-2.06.8-.48,1.71-.72,2.74-.72,1.54,0,2.75.48,3.63,1.46.88.97,1.33,2.35,1.33,4.13v1.23h-7.16c.1.73.39,1.32.88,1.77.49.44,1.11.67,1.86.67,1.16,0,2.06-.42,2.71-1.26l1.48,1.65c-.45.64-1.06,1.13-1.83,1.49-.77.36-1.62.54-2.56.54Zm-.34-9.24c-.6,0-1.08.2-1.45.61-.37.4-.61.98-.71,1.73h4.18v-.24c-.01-.67-.19-1.19-.54-1.55-.35-.37-.84-.55-1.48-.55Z"/>
    <path class="cls-1" d="m188.13,87.73c-.41-.06-.77-.08-1.08-.08-1.14,0-1.88.38-2.24,1.15v7.36h-3v-11.25h2.84l.08,1.34c.6-1.03,1.44-1.55,2.5-1.55.33,0,.64.04.94.13l-.04,2.89Z"/>
    <path class="cls-1" d="m194.66,96.37c-1.65,0-2.99-.51-4.03-1.52-1.04-1.01-1.55-2.36-1.55-4.04v-.29c0-1.13.22-2.14.66-3.03.44-.89,1.06-1.58,1.86-2.06.8-.48,1.71-.72,2.74-.72,1.54,0,2.75.48,3.63,1.46.88.97,1.33,2.35,1.33,4.13v1.23h-7.16c.1.73.39,1.32.88,1.77.49.44,1.11.67,1.86.67,1.16,0,2.06-.42,2.71-1.26l1.48,1.65c-.45.64-1.06,1.13-1.83,1.49-.77.36-1.62.54-2.56.54Zm-.34-9.24c-.6,0-1.08.2-1.45.61-.37.4-.61.98-.71,1.73h4.18v-.24c-.01-.67-.19-1.19-.54-1.55-.35-.37-.84-.55-1.48-.55Z"/>
    <path class="cls-1" d="m203.88,84.91l.09,1.3c.8-1,1.88-1.51,3.23-1.51,1.19,0,2.08.35,2.66,1.05.58.7.88,1.75.89,3.14v7.27h-3v-7.21c0-.64-.14-1.1-.42-1.39-.28-.29-.74-.43-1.38-.43-.85,0-1.48.36-1.9,1.08v7.95h-3v-11.25h2.83Z"/>
    <path class="cls-1" d="m217.7,93.94c.55,0,1-.15,1.35-.46.35-.31.53-.71.54-1.22h2.82c0,.76-.21,1.46-.62,2.09-.41.63-.97,1.13-1.68,1.48-.71.35-1.5.52-2.35.52-1.61,0-2.88-.51-3.81-1.53-.93-1.02-1.39-2.43-1.39-4.24v-.2c0-1.73.46-3.12,1.38-4.15.92-1.03,2.19-1.55,3.79-1.55,1.41,0,2.53.4,3.38,1.2.85.8,1.28,1.87,1.29,3.2h-2.82c-.01-.58-.19-1.06-.54-1.43-.35-.37-.8-.55-1.37-.55-.7,0-1.23.25-1.58.77-.36.51-.54,1.34-.54,2.48v.31c0,1.16.18,1.99.53,2.5.35.51.89.76,1.61.76Z"/>
    <path class="cls-1" d="m229.25,96.37c-1.65,0-2.99-.51-4.03-1.52-1.04-1.01-1.55-2.36-1.55-4.04v-.29c0-1.13.22-2.14.65-3.03.44-.89,1.06-1.58,1.86-2.06.8-.48,1.71-.72,2.74-.72,1.54,0,2.75.48,3.63,1.46.88.97,1.33,2.35,1.33,4.13v1.23h-7.16c.1.73.39,1.32.88,1.77.49.44,1.11.67,1.86.67,1.16,0,2.06-.42,2.71-1.26l1.48,1.65c-.45.64-1.06,1.13-1.83,1.49-.77.36-1.62.54-2.56.54Zm-.34-9.24c-.6,0-1.08.2-1.45.61-.37.4-.61.98-.71,1.73h4.18v-.24c-.01-.67-.19-1.19-.54-1.55-.35-.37-.84-.55-1.48-.55Z"/>
    <path class="cls-1" d="m246.69,90.62h-2.48v5.54h-3.12v-15.14h5.62c1.79,0,3.17.4,4.14,1.2.97.8,1.46,1.92,1.46,3.38,0,1.03-.22,1.89-.67,2.58-.45.69-1.12,1.24-2.03,1.65l3.28,6.19v.15h-3.35l-2.84-5.54Zm-2.48-2.53h2.52c.78,0,1.39-.2,1.82-.6.43-.4.64-.95.64-1.65s-.2-1.28-.61-1.68c-.41-.41-1.03-.61-1.87-.61h-2.51v4.54Z"/>
    <path class="cls-1" d="m259.35,96.37c-1.65,0-2.99-.51-4.03-1.52-1.04-1.01-1.55-2.36-1.55-4.04v-.29c0-1.13.22-2.14.65-3.03.44-.89,1.06-1.58,1.86-2.06.8-.48,1.71-.72,2.74-.72,1.54,0,2.75.48,3.63,1.46.88.97,1.33,2.35,1.33,4.13v1.23h-7.16c.1.73.39,1.32.88,1.77.49.44,1.11.67,1.86.67,1.16,0,2.06-.42,2.71-1.26l1.48,1.65c-.45.64-1.06,1.13-1.83,1.49-.77.36-1.62.54-2.56.54Zm-.34-9.24c-.6,0-1.08.2-1.45.61s-.61.98-.71,1.73h4.18v-.24c-.01-.67-.19-1.19-.54-1.55-.35-.37-.84-.55-1.48-.55Z"/>
    <path class="cls-1" d="m270.42,93.94c.55,0,1-.15,1.35-.46.35-.31.53-.71.54-1.22h2.82c0,.76-.21,1.46-.62,2.09-.41.63-.97,1.13-1.68,1.48-.71.35-1.5.52-2.35.52-1.61,0-2.88-.51-3.81-1.53-.93-1.02-1.39-2.43-1.39-4.24v-.2c0-1.73.46-3.12,1.38-4.15.92-1.03,2.19-1.55,3.79-1.55,1.41,0,2.53.4,3.38,1.2.85.8,1.28,1.87,1.29,3.2h-2.82c-.01-.58-.19-1.06-.54-1.43-.35-.37-.8-.55-1.37-.55-.7,0-1.23.25-1.58.77-.36.51-.54,1.34-.54,2.48v.31c0,1.16.18,1.99.53,2.5s.89.76,1.61.76Z"/>
    <path class="cls-1" d="m276.37,90.43c0-1.12.21-2.11.64-2.98.43-.87,1.05-1.55,1.86-2.03.81-.48,1.75-.72,2.81-.72,1.52,0,2.76.46,3.72,1.39.96.93,1.5,2.19,1.61,3.78l.02.77c0,1.73-.48,3.11-1.45,4.15-.96,1.04-2.26,1.56-3.88,1.56s-2.92-.52-3.88-1.56c-.97-1.04-1.45-2.45-1.45-4.24v-.14Zm3,.21c0,1.07.2,1.89.6,2.45.4.57.98.85,1.73.85s1.3-.28,1.71-.84c.41-.56.61-1.45.61-2.68,0-1.05-.2-1.86-.61-2.44s-.98-.86-1.73-.86-1.3.29-1.71.86c-.4.57-.6,1.46-.6,2.66Z"/>
    <path class="cls-1" d="m295.18,87.73c-.41-.06-.77-.08-1.08-.08-1.14,0-1.88.38-2.23,1.15v7.36h-3v-11.25h2.84l.08,1.34c.6-1.03,1.44-1.55,2.51-1.55.33,0,.64.04.94.13l-.04,2.89Z"/>
    <path class="cls-1" d="m296.16,90.45c0-1.75.39-3.15,1.18-4.19.79-1.04,1.86-1.56,3.23-1.56,1.09,0,2,.41,2.71,1.23v-5.74h3.02v15.97h-2.71l-.15-1.2c-.75.94-1.71,1.4-2.89,1.4-1.32,0-2.39-.52-3.19-1.56-.8-1.04-1.2-2.49-1.2-4.35Zm3,.21c0,1.06.18,1.87.55,2.43.37.56.9.85,1.6.85.93,0,1.58-.39,1.96-1.18v-4.46c-.37-.79-1.02-1.18-1.94-1.18-1.45,0-2.17,1.18-2.17,3.54Z"/>
    <path class="cls-1" d="m308.53,82c0-.45.15-.82.45-1.11.3-.29.71-.44,1.23-.44s.92.15,1.23.44c.31.29.46.66.46,1.11s-.15.83-.46,1.12c-.31.29-.72.44-1.22.44s-.91-.15-1.22-.44-.46-.67-.46-1.12Zm3.19,14.16h-3.02v-11.25h3.02v11.25Z"/>
    <path class="cls-1" d="m316.93,84.91l.09,1.3c.8-1,1.88-1.51,3.23-1.51,1.19,0,2.08.35,2.66,1.05.58.7.88,1.75.89,3.14v7.27h-3v-7.21c0-.64-.14-1.1-.42-1.39-.28-.29-.74-.43-1.38-.43-.85,0-1.48.36-1.9,1.08v7.95h-3v-11.25h2.83Z"/>
    <path class="cls-1" d="m325.62,90.45c0-1.73.41-3.12,1.23-4.17.82-1.05,1.93-1.58,3.32-1.58,1.23,0,2.19.42,2.88,1.27l.12-1.06h2.72v10.88c0,.98-.22,1.84-.67,2.57-.45.73-1.08,1.28-1.89,1.66-.81.38-1.76.57-2.85.57-.83,0-1.63-.16-2.41-.49s-1.38-.75-1.78-1.27l1.33-1.83c.75.84,1.66,1.26,2.72,1.26.8,0,1.42-.21,1.86-.64s.66-1.03.66-1.81v-.6c-.69.78-1.6,1.17-2.73,1.17-1.35,0-2.44-.53-3.28-1.59-.83-1.06-1.25-2.46-1.25-4.21v-.12Zm3,.21c0,1.02.21,1.83.61,2.41.41.58.97.87,1.68.87.92,0,1.57-.34,1.96-1.03v-4.75c-.4-.69-1.05-1.03-1.94-1.03-.72,0-1.29.3-1.7.89-.41.59-.62,1.48-.62,2.65Z"/>
  </g>
</svg>