<?xml version="1.0" encoding="utf-8"?>
<!-- Generator: Adobe Illustrator 16.0.0, SVG Export Plug-In . SVG Version: 6.00 Build 0)  -->
<!DOCTYPE svg PUBLIC "-//W3C//DTD SVG 1.1//EN" "http://www.w3.org/Graphics/SVG/1.1/DTD/svg11.dtd">
<svg version="1.1" xmlns="http://www.w3.org/2000/svg" xmlns:xlink="http://www.w3.org/1999/xlink" x="0px" y="0px"
	 width="429.438px" height="77.625px" viewBox="-223.313 -41.031 429.438 77.625"
	 enable-background="new -223.313 -41.031 429.438 77.625" xml:space="preserve">
<g id="svg3045" xmlns:sodipodi="http://sodipodi.sourceforge.net/DTD/sodipodi-0.dtd" xmlns:dc="http://purl.org/dc/elements/1.1/" xmlns:rdf="http://www.w3.org/1999/02/22-rdf-syntax-ns#" xmlns:svg="http://www.w3.org/2000/svg" xmlns:inkscape="http://www.inkscape.org/namespaces/inkscape" xmlns:cc="http://creativecommons.org/ns#" sodipodi:docname="logo-cs.svg" inkscape:version="0.91 r">
	<g id="layer1_1_" transform="translate(1798.0933,-932.78302)" inkscape:label="Layer 1" inkscape:groupmode="layer">
		<g id="flowRoot5551-8-4" transform="matrix(0.05398593,0,0,0.05296469,-1904.4108,929.68422)">
			<path id="path4165" fill="#0A2B33" d="M-2120.911,435.763h139.287V-82.932c0-34.506,0-84.961-2.659-122.077h2.659
				c17.302,33.17,41.108,66.331,59.703,92.835l205.62,299.864h66.333l187.069-293.217c15.918-25.196,46.435-71.604,61.069-100.818
				h1.33c-1.33,38.452-1.33,87.589-1.33,126.069v516.04h139.25v-874.269h-128.659l-216.211,336.989
				c-30.562,49.082-54.439,88.879-73.008,123.396h-2.695c-21.182-35.871-43.703-69.004-75.586-118.095l-234.843-342.29h-127.33
				V435.763z"/>
			<path id="path4167" fill="#0A2B33" d="M-648.904,449.075c249.368,0,435.171-176.46,435.171-447.155
				c0-262.667-179.101-448.354-435.171-448.354c-254.75,0-436.492,183.051-436.492,448.354
				C-1085.396,271.297-902.333,449.075-648.904,449.075z M-648.904,330.99c-172.498,0-287.934-124.686-287.934-329.07
				c0-204.273,115.436-330.315,287.934-330.315c179.101,0,287.88,132.697,287.88,330.315
				C-361.024,206.304-476.433,330.99-648.904,330.99z"/>
			<path id="path4169" fill="#0A2B33" d="M-35.048,435.763h240.134c307.769,0,484.238-183.079,484.238-443.072
				c0-254.765-163.137-431.197-473.647-431.197H-35.048V435.763L-35.048,435.763z M104.32,321.66v-646.1h99.472
				C430.64-324.44,540.74-194.361,540.74-6c0,175.096-88.881,327.66-334.351,327.66H104.32L104.32,321.66z"/>
			<path id="path4171" fill="#0A2B33" d="M866.68,435.763h467.017V321.66h-327.731V45.774h282.616v-114.14h-282.616V-324.44h285.284
				l38.485-114.066H866.68V435.763z"/>
			<path id="path4173" fill="#0A2B33" d="M1517.104,435.763h139.26V85.554h82.279c23.932,5.283,55.742,42.371,98.188,118.03
				l133.987,232.179h160.478l-149.887-257.338c-46.435-78.278-80.949-126.069-107.432-140.671v-2.609
				c104.809-33.225,172.435-110.166,172.435-228.178c0-84.916-34.478-161.866-120.7-205.666
				c-45.105-25.241-104.809-39.807-189.692-39.807h-218.915V435.763L1517.104,435.763z M1656.363-29.895V-324.44h75.649
				c54.34,0,88.89,11.984,112.777,30.57c38.449,23.85,57.035,66.303,57.035,115.431c0,58.355-26.555,100.791-66.36,124.631
				c-29.187,15.949-61.006,23.914-104.772,23.914H1656.363z"/>
			<path id="path4175" fill="#0A2B33" d="M2276.306,435.763h139.368V-84.241c0-57.083-1.402-102.229-4.07-140.699h2.668
				c30.516,41.153,63.728,88.926,107.468,144.664l398.016,516.04h123.405v-874.269h-139.323V56.321
				c0,54.419,1.366,103.51,2.659,149.983h-2.659c-27.894-42.509-62.335-90.244-107.477-148.619l-383.427-496.191h-136.628V435.763z"
				/>
		</g>
		<g id="g2300-3-3" transform="matrix(0.06680597,0,0,-0.06680597,-1595.8328,943.97956)">
			<path id="path2302-8-8" inkscape:connector-curvature="0" fill="#0A2B33" d="M-640.804,509.094L-806.352,96.548h-3.26
				l-165.562,412.546h-115.277h-129.88h-103.919v213.428l-245.156-0.007V509.094h-144.476V340.579h144.476V9.447
				c0-124.873,97.384-201.932,251.662-201.932c77.884,0,185.062,17.454,245.127,53.794l-68.163,148.138
				c-29.236-15.963-71.496-29.053-112.002-29.053c-48.78,0-71.467,21.817-71.467,87.159v273.026h183.001l245.653-522.889h175.313
				l324.692,691.404H-640.804z"/>
		</g>
		<path id="path2306-5-2" inkscape:connector-curvature="0" fill="#0A2B33" d="M-1718.031,964.074c-1.823,0-3.313-1.491-3.313-3.316
			V900.41c0-1.831,1.491-3.317,3.313-3.317l103.711,0c1.286,0.389,2.23,1.571,2.23,2.985v61.007c0,1.413-0.944,2.598-2.23,2.989
			H-1718.031L-1718.031,964.074z M-1601.517,891.861h-116.513c-4.71,0-8.542,3.833-8.542,8.549v60.348
			c0,4.711,3.832,8.545,8.542,8.545h116.513c4.713,0,8.549-3.834,8.549-8.545V900.41
			C-1592.969,895.694-1596.804,891.861-1601.517,891.861"/>
	</g>
</g>
<g id="Layer_1">
</g>
</svg>
